^C:\USERS\USER\SOURCE\REPOS\KPZ\KPZ\STDAFX.CPP
/c /Zi /nologo /W3 /WX- /diagnostics:classic /sdl /O2 /Oi /GL /D NDEBUG /D _CONSOLE /D _UNICODE /D UNICODE /Gm- /EHsc /MD /GS /Gy /fp:precise /permissive- /Zc:wchar_t /Zc:forScope /Zc:inline /Yc"stdafx.h" /Fp"X64\RELEASE\KPZ.PCH" /Fo"X64\RELEASE\\" /Fd"X64\RELEASE\VC141.PDB" /Gd /TP /FC C:\USERS\USER\SOURCE\REPOS\KPZ\KPZ\STDAFX.CPP
^C:\USERS\USER\SOURCE\REPOS\KPZ\KPZ\VISION2.CPP
/c /Zi /nologo /W3 /WX- /diagnostics:classic /sdl /O2 /Oi /GL /D NDEBUG /D _CONSOLE /D _UNICODE /D UNICODE /Gm- /EHsc /MD /GS /Gy /fp:precise /permissive- /Zc:wchar_t /Zc:forScope /Zc:inline /Yu"stdafx.h" /Fp"X64\RELEASE\KPZ.PCH" /Fo"X64\RELEASE\\" /Fd"X64\RELEASE\VC141.PDB" /Gd /TP /FC C:\USERS\USER\SOURCE\REPOS\KPZ\KPZ\VISION2.CPP
^C:\USERS\USER\SOURCE\REPOS\KPZ\KPZ\VISION.CPP
/c /Zi /nologo /W3 /WX- /diagnostics:classic /sdl /O2 /Oi /GL /D NDEBUG /D _CONSOLE /D _UNICODE /D UNICODE /Gm- /EHsc /MD /GS /Gy /fp:precise /permissive- /Zc:wchar_t /Zc:forScope /Zc:inline /Yu"stdafx.h" /Fp"X64\RELEASE\KPZ.PCH" /Fo"X64\RELEASE\\" /Fd"X64\RELEASE\VC141.PDB" /Gd /TP /FC C:\USERS\USER\SOURCE\REPOS\KPZ\KPZ\VISION.CPP
^C:\USERS\USER\SOURCE\REPOS\KPZ\KPZ\KPZ.CPP
/c /Zi /nologo /W3 /WX- /diagnostics:classic /sdl /O2 /Oi /GL /D NDEBUG /D _CONSOLE /D _UNICODE /D UNICODE /Gm- /EHsc /MD /GS /Gy /fp:precise /permissive- /Zc:wchar_t /Zc:forScope /Zc:inline /Yu"stdafx.h" /Fp"X64\RELEASE\KPZ.PCH" /Fo"X64\RELEASE\\" /Fd"X64\RELEASE\VC141.PDB" /Gd /TP /FC C:\USERS\USER\SOURCE\REPOS\KPZ\KPZ\KPZ.CPP
