^C:\USERS\USER\SOURCE\REPOS\KPZ\KPZ\STDAFX.CPP
C:\USERS\USER\SOURCE\REPOS\KPZ\KPZ\X64\RELEASE\KPZ.PCH
C:\USERS\USER\SOURCE\REPOS\KPZ\KPZ\X64\RELEASE\VC141.PDB
C:\USERS\USER\SOURCE\REPOS\KPZ\KPZ\X64\RELEASE\STDAFX.OBJ
^C:\USERS\USER\SOURCE\REPOS\KPZ\KPZ\KPZ.CPP|C:\USERS\USER\SOURCE\REPOS\KPZ\KPZ\VISION.CPP
C:\USERS\USER\SOURCE\REPOS\KPZ\KPZ\X64\RELEASE\VC141.PDB
C:\USERS\USER\SOURCE\REPOS\KPZ\KPZ\X64\RELEASE\KPZ.OBJ
^C:\USERS\USER\SOURCE\REPOS\KPZ\KPZ\KPZ.CPP|C:\USERS\USER\SOURCE\REPOS\KPZ\KPZ\VISION.CPP|C:\USERS\USER\SOURCE\REPOS\KPZ\KPZ\VISION2.CPP
C:\USERS\USER\SOURCE\REPOS\KPZ\KPZ\X64\RELEASE\VC141.PDB
C:\USERS\USER\SOURCE\REPOS\KPZ\KPZ\X64\RELEASE\VISION2.OBJ
C:\USERS\USER\SOURCE\REPOS\KPZ\KPZ\X64\RELEASE\KPZ.OBJ
^C:\USERS\USER\SOURCE\REPOS\KPZ\KPZ\VISION2.CPP
C:\USERS\USER\SOURCE\REPOS\KPZ\KPZ\X64\RELEASE\VISION2.OBJ
^C:\USERS\USER\SOURCE\REPOS\KPZ\KPZ\VISION.CPP
C:\USERS\USER\SOURCE\REPOS\KPZ\KPZ\X64\RELEASE\VC141.PDB
C:\USERS\USER\SOURCE\REPOS\KPZ\KPZ\X64\RELEASE\VISION.OBJ
^C:\USERS\USER\SOURCE\REPOS\KPZ\KPZ\KPZ.CPP
C:\USERS\USER\SOURCE\REPOS\KPZ\KPZ\X64\RELEASE\VC141.PDB
C:\USERS\USER\SOURCE\REPOS\KPZ\KPZ\X64\RELEASE\KPZ.OBJ
